…
bikeData <- bikeData %>% filter(weekday==params$weekday)

#create partitions in data indexes with 70% going in the training set
set.seed(num)
trainIndex <- createDataPartition(bikeData$cnt, p = 0.7, list = FALSE)

#create train and test data set using the trainIndex vector
bikeDataTrain <- bikeData[trainIndex, ]
bikeDataTest <- bikeData[-trainIndex, ]

bikeDataTrain #view train data
```

    ## # A tibble: 76 x 16
    ##    instant dteday     season    yr  mnth holiday weekday
    ##      <dbl> <date>      <dbl> <dbl> <dbl>   <dbl> <fct>  
    ##  1      14 2011-01-14      1     0     1       0 Friday 
    ##  2      28 2011-01-28      1     0     1       0 Friday 
    ##  3      35 2011-02-04      1     0     2       0 Friday 
    ##  4      42 2011-02-11      1     0     2       0 Friday 
    ##  5      49 2011-02-18      1     0     2       0 Friday 
    ##  6      56 2011-02-25      1     0     2       0 Friday 
    ##  7      63 2011-03-04      1     0     3       0 Friday 
    ##  8      70 2011-03-11      1     0     3       0 Friday 
    ##  9      84 2011-03-25      2     0     3       0 Friday 
    ## 10      98 2011-04-08      2     0     4       0 Friday 
    ## # … with 66 more rows, and 9 more variables: workingday <dbl>,
    ## #   weathersit <dbl>, temp <dbl>, atemp <dbl>, hum <dbl>,
    ## #   windspeed <dbl>, casual <dbl>, registered <dbl>, cnt <dbl>

``` r
bikeDataTest #view train data
```

    ## # A tibble: 28 x 16
    ##    instant dteday     season    yr  mnth holiday weekday
    ##      <dbl> <date>      <dbl> <dbl> <dbl>   <dbl> <fct>  
    ##  1       7 2011-01-07      1     0     1       0 Friday 
    ##  2      21 2011-01-21      1     0     1       0 Friday 
    ##  3      77 2011-03-18      1     0     3       0 Friday 
    ##  4      91 2011-04-01      2     0     4       0 Friday 
    ##  5     119 2011-04-29      2     0     4       0 Friday 
    ##  6     126 2011-05-06      2     0     5       0 Friday 
    ##  7     147 2011-05-27      2     0     5       0 Friday 
    ##  8     175 2011-06-24      3     0     6       0 Friday 
    ##  9     203 2011-07-22      3     0     7       0 Friday 
    ## 10     224 2011-08-12      3     0     8       0 Friday 
    ## # … with 18 more rows, and 9 more variables: workingday <dbl>,
    ## #   weathersit <dbl>, temp <dbl>, atemp <dbl>, hum <dbl>,
    ## #   windspeed <dbl>, casual <dbl>, registered <dbl>, cnt <dbl>
…
