…
#create partitions in data indexes with 70% going in the training set
set.seed(num)
trainIndex <- createDataPartition(bikeData$cnt, p = 0.7, list = FALSE)

#create train and test data set using the trainIndex vector
bikeDataTrain <- bikeData[trainIndex, ]
bikeDataTest <- bikeData[-trainIndex, ]

bikeDataTrain #view train data
```

    ## # A tibble: 76 x 16
    ##    instant dteday     season    yr  mnth holiday weekday workingday weathersit
    ##      <dbl> <date>      <dbl> <dbl> <dbl>   <dbl>   <dbl>      <dbl>      <dbl>
    ##  1       9 2011-01-09      1     0     1       0       0          0          1
    ##  2      23 2011-01-23      1     0     1       0       0          0          1
    ##  3      30 2011-01-30      1     0     1       0       0          0          1
    ##  4      37 2011-02-06      1     0     2       0       0          0          1
    ##  5      44 2011-02-13      1     0     2       0       0          0          1
    ##  6      51 2011-02-20      1     0     2       0       0          0          1
    ##  7      58 2011-02-27      1     0     2       0       0          0          1
    ##  8      65 2011-03-06      1     0     3       0       0          0          2
    ##  9      79 2011-03-20      1     0     3       0       0          0          1
    ## 10     100 2011-04-10      2     0     4       0       0          0          2
    ## # … with 66 more rows, and 7 more variables: temp <dbl>, atemp <dbl>,
    ## #   hum <dbl>, windspeed <dbl>, casual <dbl>, registered <dbl>, cnt <dbl>

``` r
bikeDataTest #view train data
```

    ## # A tibble: 29 x 16
    ##    instant dteday     season    yr  mnth holiday weekday workingday weathersit
    ##      <dbl> <date>      <dbl> <dbl> <dbl>   <dbl>   <dbl>      <dbl>      <dbl>
    ##  1       2 2011-01-02      1     0     1       0       0          0          2
    ##  2      16 2011-01-16      1     0     1       0       0          0          1
    ##  3      72 2011-03-13      1     0     3       0       0          0          1
    ##  4      86 2011-03-27      2     0     3       0       0          0          2
    ##  5      93 2011-04-03      2     0     4       0       0          0          1
    ##  6     135 2011-05-15      2     0     5       0       0          0          2
    ##  7     149 2011-05-29      2     0     5       0       0          0          1
    ##  8     170 2011-06-19      2     0     6       0       0          0          2
    ##  9     198 2011-07-17      3     0     7       0       0          0          1
    ## 10     205 2011-07-24      3     0     7       0       0          0          1
    ## # … with 19 more rows, and 7 more variables: temp <dbl>, atemp <dbl>,
    ## #   hum <dbl>, windspeed <dbl>, casual <dbl>, registered <dbl>, cnt <dbl>
…
