…
bikeData <- bikeData %>% filter(weekday==params$weekday)

#create partitions in data indexes with 70% going in the training set
set.seed(num)
trainIndex <- createDataPartition(bikeData$cnt, p = 0.7, list = FALSE)

#create train and test data set using the trainIndex vector
bikeDataTrain <- bikeData[trainIndex, ]
bikeDataTest <- bikeData[-trainIndex, ]

bikeDataTrain #view train data
```

    ## # A tibble: 76 x 16
    ##    instant dteday     season    yr  mnth holiday weekday workingday weathersit
    ##      <dbl> <date>      <dbl> <dbl> <dbl>   <dbl> <fct>        <dbl>      <dbl>
    ##  1      10 2011-01-10      1     0     1       0 Monday           1          1
    ##  2      24 2011-01-24      1     0     1       0 Monday           1          1
    ##  3      31 2011-01-31      1     0     1       0 Monday           1          2
    ##  4      38 2011-02-07      1     0     2       0 Monday           1          1
    ##  5      45 2011-02-14      1     0     2       0 Monday           1          1
    ##  6      52 2011-02-21      1     0     2       1 Monday           0          2
    ##  7      59 2011-02-28      1     0     2       0 Monday           1          2
    ##  8      66 2011-03-07      1     0     3       0 Monday           1          1
    ##  9      80 2011-03-21      2     0     3       0 Monday           1          2
    ## 10      94 2011-04-04      2     0     4       0 Monday           1          1
    ## # … with 66 more rows, and 7 more variables: temp <dbl>, atemp <dbl>,
    ## #   hum <dbl>, windspeed <dbl>, casual <dbl>, registered <dbl>, cnt <dbl>

``` r
bikeDataTest #view train data
```

    ## # A tibble: 29 x 16
    ##    instant dteday     season    yr  mnth holiday weekday workingday weathersit
    ##      <dbl> <date>      <dbl> <dbl> <dbl>   <dbl> <fct>        <dbl>      <dbl>
    ##  1       3 2011-01-03      1     0     1       0 Monday           1          1
    ##  2      17 2011-01-17      1     0     1       1 Monday           0          2
    ##  3      73 2011-03-14      1     0     3       0 Monday           1          1
    ##  4      87 2011-03-28      2     0     3       0 Monday           1          1
    ##  5     101 2011-04-11      2     0     4       0 Monday           1          2
    ##  6     122 2011-05-02      2     0     5       0 Monday           1          2
    ##  7     150 2011-05-30      2     0     5       1 Monday           0          1
    ##  8     157 2011-06-06      2     0     6       0 Monday           1          1
    ##  9     185 2011-07-04      3     0     7       1 Monday           0          2
    ## 10     199 2011-07-18      3     0     7       0 Monday           1          1
    ## # … with 19 more rows, and 7 more variables: temp <dbl>, atemp <dbl>,
    ## #   hum <dbl>, windspeed <dbl>, casual <dbl>, registered <dbl>, cnt <dbl>
…
