…
bikeData <- bikeData %>% filter(weekday==params$weekday)

#create partitions in data indexes with 70% going in the training set
set.seed(num)
trainIndex <- createDataPartition(bikeData$cnt, p = 0.7, list = FALSE)

#create train and test data set using the trainIndex vector
bikeDataTrain <- bikeData[trainIndex, ]
bikeDataTest <- bikeData[-trainIndex, ]

bikeDataTrain #view train data
```

    ## # A tibble: 76 x 16
    ##    instant dteday     season    yr  mnth holiday weekday
    ##      <dbl> <date>      <dbl> <dbl> <dbl>   <dbl> <fct>  
    ##  1       8 2011-01-08      1     0     1       0 Saturd…
    ##  2      22 2011-01-22      1     0     1       0 Saturd…
    ##  3      29 2011-01-29      1     0     1       0 Saturd…
    ##  4      36 2011-02-05      1     0     2       0 Saturd…
    ##  5      43 2011-02-12      1     0     2       0 Saturd…
    ##  6      50 2011-02-19      1     0     2       0 Saturd…
    ##  7      57 2011-02-26      1     0     2       0 Saturd…
    ##  8      64 2011-03-05      1     0     3       0 Saturd…
    ##  9      85 2011-03-26      2     0     3       0 Saturd…
    ## 10      99 2011-04-09      2     0     4       0 Saturd…
    ## # … with 66 more rows, and 9 more variables: workingday <dbl>,
    ## #   weathersit <dbl>, temp <dbl>, atemp <dbl>, hum <dbl>,
    ## #   windspeed <dbl>, casual <dbl>, registered <dbl>, cnt <dbl>

``` r
bikeDataTest #view train data
```

    ## # A tibble: 29 x 16
    ##    instant dteday     season    yr  mnth holiday weekday
    ##      <dbl> <date>      <dbl> <dbl> <dbl>   <dbl> <fct>  
    ##  1       1 2011-01-01      1     0     1       0 Saturd…
    ##  2      15 2011-01-15      1     0     1       0 Saturd…
    ##  3      71 2011-03-12      1     0     3       0 Saturd…
    ##  4      78 2011-03-19      1     0     3       0 Saturd…
    ##  5      92 2011-04-02      2     0     4       0 Saturd…
    ##  6     120 2011-04-30      2     0     4       0 Saturd…
    ##  7     141 2011-05-21      2     0     5       0 Saturd…
    ##  8     162 2011-06-11      2     0     6       0 Saturd…
    ##  9     190 2011-07-09      3     0     7       0 Saturd…
    ## 10     197 2011-07-16      3     0     7       0 Saturd…
    ## # … with 19 more rows, and 9 more variables: workingday <dbl>,
    ## #   weathersit <dbl>, temp <dbl>, atemp <dbl>, hum <dbl>,
    ## #   windspeed <dbl>, casual <dbl>, registered <dbl>, cnt <dbl>
…
