…
bikeData <- bikeData %>% filter(weekday==params$weekday)

#create partitions in data indexes with 70% going in the training set
set.seed(num)
trainIndex <- createDataPartition(bikeData$cnt, p = 0.7, list = FALSE)

#create train and test data set using the trainIndex vector
bikeDataTrain <- bikeData[trainIndex, ]
bikeDataTest <- bikeData[-trainIndex, ]

bikeDataTrain #view train data

## # A tibble: 76 x 16
##    instant dteday     season    yr  mnth holiday weekday
##      <dbl> <date>      <dbl> <dbl> <dbl>   <dbl> <fct>  
##  1       9 2011-01-09      1     0     1       0 Sunday 
##  2      23 2011-01-23      1     0     1       0 Sunday 
##  3      30 2011-01-30      1     0     1       0 Sunday 
##  4      37 2011-02-06      1     0     2       0 Sunday 
##  5      44 2011-02-13      1     0     2       0 Sunday 
##  6      51 2011-02-20      1     0     2       0 Sunday 
##  7      58 2011-02-27      1     0     2       0 Sunday 
##  8      65 2011-03-06      1     0     3       0 Sunday 
##  9      79 2011-03-20      1     0     3       0 Sunday 
## 10     100 2011-04-10      2     0     4       0 Sunday 
## # … with 66 more rows, and 9 more variables: workingday <dbl>,
## #   weathersit <dbl>, temp <dbl>, atemp <dbl>, hum <dbl>,
## #   windspeed <dbl>, casual <dbl>, registered <dbl>, cnt <dbl>

bikeDataTest #view train data

## # A tibble: 29 x 16
##    instant dteday     season    yr  mnth holiday weekday
##      <dbl> <date>      <dbl> <dbl> <dbl>   <dbl> <fct>  
##  1       2 2011-01-02      1     0     1       0 Sunday 
##  2      16 2011-01-16      1     0     1       0 Sunday 
##  3      72 2011-03-13      1     0     3       0 Sunday 
##  4      86 2011-03-27      2     0     3       0 Sunday 
##  5      93 2011-04-03      2     0     4       0 Sunday 
##  6     135 2011-05-15      2     0     5       0 Sunday 
##  7     149 2011-05-29      2     0     5       0 Sunday 
##  8     170 2011-06-19      2     0     6       0 Sunday 
##  9     198 2011-07-17      3     0     7       0 Sunday 
## 10     205 2011-07-24      3     0     7       0 Sunday 
## # … with 19 more rows, and 9 more variables: workingday <dbl>,
## #   weathersit <dbl>, temp <dbl>, atemp <dbl>, hum <dbl>,
## #   windspeed <dbl>, casual <dbl>, registered <dbl>, cnt <dbl>
…
