…
bikeData <- bikeData %>% filter(weekday==params$weekday)

#create partitions in data indexes with 70% going in the training set
set.seed(num)
trainIndex <- createDataPartition(bikeData$cnt, p = 0.7, list = FALSE)

#create train and test data set using the trainIndex vector
bikeDataTrain <- bikeData[trainIndex, ]
bikeDataTest <- bikeData[-trainIndex, ]

bikeDataTrain #view train data
```

    ## # A tibble: 76 x 16
    ##    instant dteday     season    yr  mnth holiday weekday
    ##      <dbl> <date>      <dbl> <dbl> <dbl>   <dbl> <fct>  
    ##  1      13 2011-01-13      1     0     1       0 Thursd…
    ##  2      27 2011-01-27      1     0     1       0 Thursd…
    ##  3      34 2011-02-03      1     0     2       0 Thursd…
    ##  4      41 2011-02-10      1     0     2       0 Thursd…
    ##  5      48 2011-02-17      1     0     2       0 Thursd…
    ##  6      55 2011-02-24      1     0     2       0 Thursd…
    ##  7      62 2011-03-03      1     0     3       0 Thursd…
    ##  8      69 2011-03-10      1     0     3       0 Thursd…
    ##  9      83 2011-03-24      2     0     3       0 Thursd…
    ## 10      97 2011-04-07      2     0     4       0 Thursd…
    ## # … with 66 more rows, and 9 more variables: workingday <dbl>,
    ## #   weathersit <dbl>, temp <dbl>, atemp <dbl>, hum <dbl>,
    ## #   windspeed <dbl>, casual <dbl>, registered <dbl>, cnt <dbl>

``` r
bikeDataTest #view train data
```

    ## # A tibble: 28 x 16
    ##    instant dteday     season    yr  mnth holiday weekday
    ##      <dbl> <date>      <dbl> <dbl> <dbl>   <dbl> <fct>  
    ##  1       6 2011-01-06      1     0     1       0 Thursd…
    ##  2      20 2011-01-20      1     0     1       0 Thursd…
    ##  3      76 2011-03-17      1     0     3       0 Thursd…
    ##  4      90 2011-03-31      2     0     3       0 Thursd…
    ##  5     111 2011-04-21      2     0     4       0 Thursd…
    ##  6     132 2011-05-12      2     0     5       0 Thursd…
    ##  7     160 2011-06-09      2     0     6       0 Thursd…
    ##  8     174 2011-06-23      3     0     6       0 Thursd…
    ##  9     188 2011-07-07      3     0     7       0 Thursd…
    ## 10     202 2011-07-21      3     0     7       0 Thursd…
    ## # … with 18 more rows, and 9 more variables: workingday <dbl>,
    ## #   weathersit <dbl>, temp <dbl>, atemp <dbl>, hum <dbl>,
    ## #   windspeed <dbl>, casual <dbl>, registered <dbl>, cnt <dbl>
…
