…
bikeData <- bikeData %>% filter(weekday==params$weekday)

#create partitions in data indexes with 70% going in the training set
set.seed(num)
trainIndex <- createDataPartition(bikeData$cnt, p = 0.7, list = FALSE)

#create train and test data set using the trainIndex vector
bikeDataTrain <- bikeData[trainIndex, ]
bikeDataTest <- bikeData[-trainIndex, ]

bikeDataTrain #view train data
```

    ## # A tibble: 76 x 16
    ##    instant dteday     season    yr  mnth holiday weekday
    ##      <dbl> <date>      <dbl> <dbl> <dbl>   <dbl> <fct>  
    ##  1      11 2011-01-11      1     0     1       0 Tuesday
    ##  2      25 2011-01-25      1     0     1       0 Tuesday
    ##  3      32 2011-02-01      1     0     2       0 Tuesday
    ##  4      39 2011-02-08      1     0     2       0 Tuesday
    ##  5      46 2011-02-15      1     0     2       0 Tuesday
    ##  6      53 2011-02-22      1     0     2       0 Tuesday
    ##  7      60 2011-03-01      1     0     3       0 Tuesday
    ##  8      67 2011-03-08      1     0     3       0 Tuesday
    ##  9      81 2011-03-22      2     0     3       0 Tuesday
    ## 10      95 2011-04-05      2     0     4       0 Tuesday
    ## # … with 66 more rows, and 9 more variables: workingday <dbl>,
    ## #   weathersit <dbl>, temp <dbl>, atemp <dbl>, hum <dbl>,
    ## #   windspeed <dbl>, casual <dbl>, registered <dbl>, cnt <dbl>

``` r
bikeDataTest #view train data
```

    ## # A tibble: 28 x 16
    ##    instant dteday     season    yr  mnth holiday weekday
    ##      <dbl> <date>      <dbl> <dbl> <dbl>   <dbl> <fct>  
    ##  1       4 2011-01-04      1     0     1       0 Tuesday
    ##  2      18 2011-01-18      1     0     1       0 Tuesday
    ##  3      74 2011-03-15      1     0     3       0 Tuesday
    ##  4      88 2011-03-29      2     0     3       0 Tuesday
    ##  5     116 2011-04-26      2     0     4       0 Tuesday
    ##  6     130 2011-05-10      2     0     5       0 Tuesday
    ##  7     165 2011-06-14      2     0     6       0 Tuesday
    ##  8     186 2011-07-05      3     0     7       0 Tuesday
    ##  9     193 2011-07-12      3     0     7       0 Tuesday
    ## 10     228 2011-08-16      3     0     8       0 Tuesday
    ## # … with 18 more rows, and 9 more variables: workingday <dbl>,
    ## #   weathersit <dbl>, temp <dbl>, atemp <dbl>, hum <dbl>,
    ## #   windspeed <dbl>, casual <dbl>, registered <dbl>, cnt <dbl>
…
