…
bikeData <- bikeData %>% filter(weekday==params$weekday)

#create partitions in data indexes with 70% going in the training set
set.seed(num)
trainIndex <- createDataPartition(bikeData$cnt, p = 0.7, list = FALSE)

#create train and test data set using the trainIndex vector
bikeDataTrain <- bikeData[trainIndex, ]
bikeDataTest <- bikeData[-trainIndex, ]

bikeDataTrain #view train data
```

    ## # A tibble: 76 x 16
    ##    instant dteday     season    yr  mnth holiday weekday
    ##      <dbl> <date>      <dbl> <dbl> <dbl>   <dbl> <fct>  
    ##  1      12 2011-01-12      1     0     1       0 Wednes…
    ##  2      26 2011-01-26      1     0     1       0 Wednes…
    ##  3      33 2011-02-02      1     0     2       0 Wednes…
    ##  4      40 2011-02-09      1     0     2       0 Wednes…
    ##  5      47 2011-02-16      1     0     2       0 Wednes…
    ##  6      54 2011-02-23      1     0     2       0 Wednes…
    ##  7      61 2011-03-02      1     0     3       0 Wednes…
    ##  8      68 2011-03-09      1     0     3       0 Wednes…
    ##  9      82 2011-03-23      2     0     3       0 Wednes…
    ## 10     103 2011-04-13      2     0     4       0 Wednes…
    ## # … with 66 more rows, and 9 more variables: workingday <dbl>,
    ## #   weathersit <dbl>, temp <dbl>, atemp <dbl>, hum <dbl>,
    ## #   windspeed <dbl>, casual <dbl>, registered <dbl>, cnt <dbl>

``` r
bikeDataTest #view train data
```

    ## # A tibble: 28 x 16
    ##    instant dteday     season    yr  mnth holiday weekday
    ##      <dbl> <date>      <dbl> <dbl> <dbl>   <dbl> <fct>  
    ##  1       5 2011-01-05      1     0     1       0 Wednes…
    ##  2      19 2011-01-19      1     0     1       0 Wednes…
    ##  3      75 2011-03-16      1     0     3       0 Wednes…
    ##  4      89 2011-03-30      2     0     3       0 Wednes…
    ##  5      96 2011-04-06      2     0     4       0 Wednes…
    ##  6     145 2011-05-25      2     0     5       0 Wednes…
    ##  7     152 2011-06-01      2     0     6       0 Wednes…
    ##  8     173 2011-06-22      3     0     6       0 Wednes…
    ##  9     180 2011-06-29      3     0     6       0 Wednes…
    ## 10     187 2011-07-06      3     0     7       0 Wednes…
    ## # … with 18 more rows, and 9 more variables: workingday <dbl>,
    ## #   weathersit <dbl>, temp <dbl>, atemp <dbl>, hum <dbl>,
    ## #   windspeed <dbl>, casual <dbl>, registered <dbl>, cnt <dbl>
…
